<?xml version="1.0" encoding="UTF-8" standalone="no"?>
<svg
   width="16"
   height="16"
   version="1.1"
   id="svg10"
   sodipodi:docname="battery-full-charging-symbolic.svg"
   inkscape:version="1.1.2 (0a00cf5339, 2022-02-04, custom)"
   xmlns:inkscape="http://www.inkscape.org/namespaces/inkscape"
   xmlns:sodipodi="http://sodipodi.sourceforge.net/DTD/sodipodi-0.dtd"
   xmlns="http://www.w3.org/2000/svg"
   xmlns:svg="http://www.w3.org/2000/svg">
  <defs
     id="defs14" />
  <sodipodi:namedview
     id="namedview12"
     pagecolor="#ffffff"
     bordercolor="#666666"
     borderopacity="1.0"
     inkscape:pageshadow="2"
     inkscape:pageopacity="0.0"
     inkscape:pagecheckerboard="0"
     showgrid="false"
     inkscape:zoom="51.9375"
     inkscape:cx="7.990373"
     inkscape:cy="7.9807461"
     inkscape:window-width="2556"
     inkscape:window-height="1053"
     inkscape:window-x="0"
     inkscape:window-y="23"
     inkscape:window-maximized="1"
     inkscape:current-layer="svg10" />
  <path
     d="m6 3v1h7c0.554 0 1 0.446 1 1v6c0 0.554-0.446 1-1 1h-9v1h9c1.108 0 2-0.892 2-2v-2h1v-2h-1v-2c0-1.108-0.892-2-2-2z"
     fill="#363636"
     stroke-linecap="round"
     stroke-linejoin="round"
     stroke-width="1.5"
     style="paint-order:stroke fill markers"
     id="path2" />
  <path
     d="m6 5v0.5c0 1.3994-0.81858 2.5934-2 3.1543v2.3457h9v-6h-7z"
     fill="#363636"
     stroke-linecap="round"
     stroke-linejoin="round"
     stroke-width="1.5"
     style="paint-order:stroke fill markers"
     id="path4" />
  <g
     transform="translate(-.069557)"
     fill="#363636"
     stroke-linecap="round"
     stroke-linejoin="round"
     stroke-width="4"
     style="paint-order:stroke fill markers"
     aria-label=""
     id="g8">
    <path
       d="m5.0696 5.5c0 0.29167-0.052083 0.57292-0.15625 0.84375-0.09375 0.27083-0.22917 0.51562-0.40625 0.73438s-0.39062 0.40625-0.64062 0.5625c-0.23958 0.14583-0.50521 0.25-0.79688 0.3125v5.0469h-1v-5.0469c-0.29167-0.0625-0.5625-0.16667-0.8125-0.3125-0.23958-0.15625-0.44792-0.34375-0.625-0.5625s-0.31771-0.46354-0.42188-0.73438c-0.09375-0.27083-0.14062-0.55208-0.14062-0.84375v-2.5h1v-2h1v2h1v-2h1v2h1zm-4 0c0 0.41667 0.14583 0.77083 0.4375 1.0625s0.64583 0.4375 1.0625 0.4375 0.77083-0.14583 1.0625-0.4375 0.4375-0.64583 0.4375-1.0625v-1.5h-3z"
       fill="#363636"
       stroke-width="4"
       id="path6" />
  </g>
  <path
     style="fill:#ffffff;stroke-width:0.0192539"
     d="m 4.0048135,12.496057 v -0.491244 h 4.5687586 c 5.0356299,0 4.6677349,0.0089 4.9082649,-0.119261 0.230775,-0.123002 0.402319,-0.330405 0.482622,-0.583506 l 0.04276,-0.134778 V 8 4.8327316 L 13.964459,4.6979543 C 13.883643,4.4432359 13.700504,4.2235444 13.473057,4.1084723 13.234913,3.9879884 13.482609,3.9951865 9.5747755,3.9951865 H 6.0072202 V 3.5038733 3.0125602 l 3.6630566,0.00539 3.6630562,0.00539 0.179185,0.05263 c 0.701996,0.206189 1.232139,0.7366979 1.407756,1.4087289 0.06532,0.2499414 0.07849,0.5094645 0.07851,1.5465903 l 1.7e-5,0.9867629 H 15.499398 16 V 8 8.9819495 h -0.500602 -0.500601 l -1.7e-5,0.9867629 c -1.6e-5,1.0371256 -0.01319,1.2966486 -0.07851,1.5465906 -0.175611,0.672005 -0.70544,1.202229 -1.407756,1.408803 l -0.179185,0.0527 -4.6642596,0.0052 -4.6642599,0.0052 z"
     id="path90" />
  <path
     style="fill:#ffffff;stroke-width:0.0192539"
     d="M 2.0024067,10.465243 V 7.9437226 l -0.081829,-0.02068 C 1.28966,7.7635961 0.80416042,7.4237767 0.43871384,6.8858305 0.24695844,6.6035618 0.12587733,6.3183139 0.05350484,5.9783394 0.01702845,5.806989 0.01399302,5.7074963 0.0054834,4.4043321 L -0.00360041,3.0132371 H 0.49880148 1.0012034 V 2.0120337 1.0108303 H 1.4921781 1.9831528 V 2.0120337 3.0132371 H 2.4933815 3.0036101 V 2.0120337 1.0108303 h 0.4909747 0.4909748 v 1.0012034 1.0012034 h 0.5006017 0.5006016 v 1.3443808 c 0,1.4773871 -0.00319,1.527913 -0.1188811,1.8806492 C 4.6922632,6.7737363 4.3638866,7.2265001 3.9247867,7.5386006 3.7338326,7.6743259 3.4004831,7.8331691 3.1720818,7.8972696 l -0.1877256,0.052685 v 2.5184044 2.518404 H 2.4933815 2.0024067 Z M 2.8592058,6.9683468 C 2.9351068,6.9534641 3.0696814,6.9043637 3.1672684,6.8559484 3.542719,6.669678 3.8135006,6.3557464 3.9491612,5.9494585 3.9933715,5.817054 3.9942758,5.7986638 4.0005274,4.9049338 L 4.006891,3.9951865 H 2.4944202 0.98194946 l 3.3367e-4,0.7460891 c 1.8291e-4,0.4103489 0.008841,0.8268517 0.0192389,0.9255617 0.037794,0.3587846 0.1735646,0.6418316 0.4316869,0.8999537 0.378596,0.3785962 0.8566066,0.5132023 1.4259969,0.4015558 z"
     id="path129" />
  <path
     style="fill:#ffffff;stroke-width:0.0192539"
     d="M 4.0048135,9.8218305 V 8.6593047 L 4.063004,8.6352015 C 4.0950087,8.6219446 4.1985377,8.5653946 4.2930685,8.5095347 5.0785726,8.0453665 5.6719069,7.2618039 5.8931477,6.396456 5.9753673,6.0748672 5.9918232,5.9352128 6.0019716,5.4729242 L 6.0120098,5.0156438 H 9.5041999 12.99639 V 8 10.984356 H 8.5006017 4.0048135 Z"
     id="path168" />
</svg>
