<?xml version="1.0" encoding="UTF-8" standalone="no"?>
<svg
   width="16.028"
   height="16.007"
   version="1.1"
   id="svg8"
   sodipodi:docname="wireless_na.svg"
   inkscape:version="1.1.2 (0a00cf5339, 2022-02-04, custom)"
   xmlns:inkscape="http://www.inkscape.org/namespaces/inkscape"
   xmlns:sodipodi="http://sodipodi.sourceforge.net/DTD/sodipodi-0.dtd"
   xmlns="http://www.w3.org/2000/svg"
   xmlns:svg="http://www.w3.org/2000/svg">
  <defs
     id="defs12" />
  <sodipodi:namedview
     id="namedview10"
     pagecolor="#ffffff"
     bordercolor="#666666"
     borderopacity="1.0"
     inkscape:pageshadow="2"
     inkscape:pageopacity="0.0"
     inkscape:pagecheckerboard="0"
     showgrid="false"
     inkscape:zoom="51.914787"
     inkscape:cx="8.0131312"
     inkscape:cy="7.9842377"
     inkscape:window-width="2556"
     inkscape:window-height="1053"
     inkscape:window-x="0"
     inkscape:window-y="23"
     inkscape:window-maximized="1"
     inkscape:current-layer="svg8" />
  <g
     fill="#363636"
     id="g4">
    <path
       d="m8 3c-2.8405-3e-7 -5.4324 1.0071-7.4863 2.6582a0.5 0.5 0 0 0-0.095703 0.072266 0.5 0.5 0 0 0-0.1543 0.35938 0.5 0.5 0 0 0 0.5 0.5 0.5 0.5 0 0 0 0.31836-0.11328c1.891-1.5388 4.2898-2.4766 6.918-2.4766 2.6282-3e-7 5.0269 0.93772 6.918 2.4766a0.5 0.5 0 0 0 0.31836 0.11328 0.5 0.5 0 0 0 0.5-0.5 0.5 0.5 0 0 0-0.1543-0.35938 0.5 0.5 0 0 0-0.0957-0.072266c-2.0539-1.6511-4.6459-2.6582-7.4863-2.6582zm0 3c-2.0731 0-3.9681 0.71724-5.4883 1.8965a0.5 0.5 0 0 0-0.10156 0.074219 0.5 0.5 0 0 0-0.15625 0.36133 0.5 0.5 0 0 0 0.5 0.5 0.5 0.5 0 0 0 0.32031-0.11523c1.3588-1.0688 3.0627-1.7168 4.9258-1.7168 0.90287-1e-7 1.7673 0.1551 2.5742 0.43359a4.5 4.5 0 0 1 1.5352-0.41602c-1.2308-0.64334-2.623-1.0176-4.1094-1.0176zm0 3c-1.3525-2e-7 -2.5832 0.46892-3.5859 1.2246-0.11034 0.09497-0.16795 0.23918-0.16797 0.38477 0 0.27614 0.22386 0.5 0.5 0.5 0.12436-3.26e-4 0.24413-0.04698 0.33594-0.13086 0.82215-0.60306 1.8199-0.97852 2.918-0.97852 0.085502 0 0.16575 0.017002 0.25 0.021484a4.5 4.5 0 0 1 0.46875-0.95898c-0.23677-0.029793-0.47332-0.0625-0.71875-0.0625zm0 3a1 1 0 0 0-1 1 1 1 0 0 0 1 1 1 1 0 0 0 0.62305-0.21875 4.5 4.5 0 0 1-0.5957-1.7812 1 1 0 0 0-0.027344 0z"
       id="path2" />
  </g>
  <path
     d="m12.5 8c-1.933 0-3.5 1.567-3.5 3.5s1.567 3.5 3.5 3.5 3.5-1.567 3.5-3.5-1.567-3.5-3.5-3.5zm-1.4141 1.5859c0.12781 0 0.25558 0.04855 0.35352 0.14648l1.0605 1.0605 1.0605-1.0605c0.19587-0.19587 0.51116-0.19587 0.70703 0 0.19587 0.19587 0.19587 0.51116 0 0.70703l-1.0605 1.0605 1.0605 1.0605c0.19587 0.19587 0.19587 0.51116 0 0.70703s-0.51116 0.19587-0.70703 0l-1.0605-1.0605-1.0605 1.0605c-0.19587 0.19587-0.51116 0.19587-0.70703 0s-0.19587-0.51116 0-0.70703l1.0605-1.0605-1.0605-1.0605c-0.19587-0.19587-0.19587-0.51116 0-0.70703 0.097934-0.097934 0.22571-0.14648 0.35352-0.14648z"
     fill="#363636"
     id="path6" />
  <path
     style="fill:#ffffff;stroke-width:0.0192623"
     d="m 12.169332,14.975666 c -1.569274,-0.164125 -2.8237828,-1.325851 -3.1088512,-2.87892 -0.049988,-0.272337 -0.049988,-0.921928 0,-1.194265 0.3571665,-1.9458632 2.2205372,-3.2135024 4.1438492,-2.8190335 1.446964,0.2967704 2.562777,1.4998823 2.753849,2.9693035 0.240622,1.850481 -1.030441,3.568658 -2.874657,3.885859 -0.258262,0.04442 -0.680238,0.06152 -0.91419,0.03706 z m -0.831515,-1.617148 c 0.04131,-0.02483 0.319991,-0.288206 0.619283,-0.585287 l 0.544167,-0.540147 0.554105,0.55197 c 0.605782,0.603447 0.641146,0.629996 0.840168,0.630739 0.169408,6.32e-4 0.258395,-0.03379 0.371376,-0.14364 0.163583,-0.159056 0.199606,-0.363881 0.102575,-0.583236 -0.02911,-0.06581 -0.17781,-0.227661 -0.586832,-0.638727 l -0.547839,-0.550576 0.547404,-0.549595 c 0.412237,-0.413885 0.557141,-0.571603 0.586833,-0.638727 0.09748,-0.220375 0.06173,-0.4248842 -0.102141,-0.5842174 C 14.153935,9.6172202 14.064948,9.5828021 13.89554,9.5834345 13.696523,9.5841772 13.661144,9.6107357 13.055509,10.214038 L 12.50154,10.765872 11.947606,10.216499 C 11.595765,9.8675561 11.365561,9.6539836 11.316622,9.6311017 c -0.09909,-0.046329 -0.275905,-0.059442 -0.385975,-0.028624 -0.104707,0.029316 -0.245686,0.1490582 -0.303013,0.2573681 -0.0608,0.1148712 -0.05942,0.3350162 0.0028,0.4551342 0.02873,0.05541 0.242175,0.284813 0.591718,0.635938 l 0.546783,0.549258 -0.538074,0.537816 c -0.618956,0.618661 -0.646485,0.656062 -0.645806,0.877403 5.38e-4,0.175327 0.04194,0.26594 0.175063,0.383117 0.113093,0.09955 0.172203,0.117941 0.356135,0.110817 0.112392,-0.0044 0.163851,-0.01616 0.221517,-0.05081 z"
     id="path88" />
  <path
     style="fill:#ffffff;stroke-width:0.0192623"
     d="m 7.8108766,13.972758 c -0.4461789,-0.0901 -0.7993868,-0.51899 -0.7993868,-0.970682 0,-0.495427 0.3877146,-0.927529 0.8824745,-0.983504 0.1350331,-0.01528 0.1148868,-0.04764 0.1686002,0.270797 0.071485,0.42379 0.2317901,0.894317 0.4415958,1.296171 l 0.1034882,0.198217 -0.090189,0.05702 c -0.184503,0.116652 -0.4951427,0.174675 -0.7065833,0.131979 z"
     id="path127" />
  <path
     style="fill:#ffffff;stroke-width:0.0192623"
     d="M 4.6031081,11.076089 C 4.4936571,11.041171 4.364845,10.932323 4.3097294,10.828178 4.2771117,10.766545 4.2675,10.715501 4.2675,10.603915 4.2675,10.365381 4.323402,10.29123 4.6863243,10.048372 5.5137298,9.4946923 6.3433903,9.179796 7.3100559,9.0525389 7.6224455,9.0114143 8.1776276,9.005875 8.477809,9.0408878 l 0.2238986,0.026115 -0.072491,0.1193235 C 8.5242846,9.3590476 8.3836868,9.6444905 8.3112339,9.8318982 l -0.062884,0.1626563 -0.3246794,0.00353 c -0.3587234,0.0039 -0.5524428,0.024659 -0.9121805,0.097747 -0.553676,0.112489 -1.235377,0.40043 -1.711122,0.722754 -0.1306544,0.08852 -0.2780694,0.184205 -0.3275888,0.212631 -0.1130164,0.06488 -0.253504,0.08193 -0.3696709,0.04487 z"
     id="path166" />
  <path
     style="fill:#ffffff;stroke-width:0.0192623"
     d="M 2.6644894,8.8106378 C 2.5515749,8.7897515 2.4836026,8.7504569 2.3996569,8.6575391 2.3036901,8.5513152 2.2729555,8.4721944 2.2729555,8.3313684 c 0,-0.1373514 0.048577,-0.2553276 0.1402859,-0.3407066 C 2.5650139,7.8493653 3.0805971,7.4934446 3.4768514,7.2564237 5.5904488,5.992168 8.1600881,5.6761294 10.53622,6.3881956 c 0.442677,0.132659 1.037177,0.3689799 1.437658,0.5714864 l 0.104724,0.052954 -0.199037,0.02364 c -0.346401,0.041143 -0.858789,0.1848228 -1.182421,0.3315644 l -0.11936,0.05412 -0.208451,-0.066337 C 8.929529,6.8974281 7.3129661,6.8741851 5.8398885,7.2905001 4.898407,7.5565777 4.0030396,8.0023516 3.2040103,8.6028167 2.9285924,8.8097915 2.8414278,8.8433669 2.6644894,8.8106378 Z"
     id="path205" />
  <path
     style="fill:#ffffff;stroke-width:0.0192623"
     d="M 0.56823887,6.5327658 C 0.36075179,6.4359395 0.2417845,6.2122406 0.28576543,6.0016199 0.31438092,5.8645828 0.3769058,5.7735477 0.513982,5.6693402 1.1471628,5.1879862 1.4433349,4.9824665 1.8894252,4.7148924 3.2412696,3.9040286 4.7245666,3.3689637 6.2506275,3.1416901 6.9074597,3.0438692 7.1796083,3.0255245 7.9842377,3.0248325 c 0.7917742,-6.808e-4 1.0298304,0.013483 1.6276672,0.096843 2.0929901,0.2918383 4.0532661,1.1281483 5.7498071,2.4530317 0.116537,0.091008 0.231157,0.1871386 0.254712,0.2136243 0.12099,0.1360466 0.135797,0.3845278 0.03288,0.5517538 C 15.54314,6.5125832 15.352714,6.599888 15.149199,6.5693689 15.054332,6.5551427 15.000659,6.5204977 14.57825,6.2008257 13.046675,5.0417568 11.243488,4.3095787 9.3422322,4.074758 8.8114946,4.0092076 8.4247093,3.9912488 7.7916143,4.0027615 7.0203942,4.0167859 6.4944051,4.0722966 5.817225,4.2111302 4.1805201,4.546683 2.6368707,5.2590139 1.2848452,6.3026378 1.1280759,6.4236474 0.96446016,6.5351274 0.92125463,6.5503712 0.8061365,6.5909872 0.67946284,6.5846699 0.56823887,6.5327658 Z"
     id="path244" />
</svg>
