<?xml version="1.0" encoding="UTF-8" standalone="no"?>
<svg
   width="16"
   height="16"
   version="1.1"
   id="svg4"
   sodipodi:docname="wired.svg"
   inkscape:version="1.1.2 (0a00cf5339, 2022-02-04, custom)"
   xmlns:inkscape="http://www.inkscape.org/namespaces/inkscape"
   xmlns:sodipodi="http://sodipodi.sourceforge.net/DTD/sodipodi-0.dtd"
   xmlns="http://www.w3.org/2000/svg"
   xmlns:svg="http://www.w3.org/2000/svg">
  <defs
     id="defs8" />
  <sodipodi:namedview
     id="namedview6"
     pagecolor="#ffffff"
     bordercolor="#666666"
     borderopacity="1.0"
     inkscape:pageshadow="2"
     inkscape:pageopacity="0.0"
     inkscape:pagecheckerboard="0"
     showgrid="false"
     inkscape:zoom="51.9375"
     inkscape:cx="7.990373"
     inkscape:cy="7.9807461"
     inkscape:window-width="1916"
     inkscape:window-height="1053"
     inkscape:window-x="0"
     inkscape:window-y="23"
     inkscape:window-maximized="1"
     inkscape:current-layer="svg4" />
  <path
     d="m1 2c-0.554 0-1 0.446-1 1v4c0 0.554 0.446 1 1 1h1v6h1v-3h5v2h-3v1h7v-1h-3v-2h6c0.554 0 1-0.446 1-1v-7c0-0.554-0.446-1-1-1h-12zm0 1h3v1h-3zm4 0h10v7h-12v-2h1c0.554 0 1-0.446 1-1zm-4 2h1v1h1v-1h1v2h-3z"
     fill="#363636"
     stroke-linecap="round"
     stroke-linejoin="round"
     stroke-width="10"
     style="paint-order:stroke fill markers"
     id="path2" />
  <path
     style="fill:#ffffff;stroke-width:0.0192539"
     d="M 2.0024067,10.996207 V 8.0044477 L 1.4199759,7.995355 C 0.89507558,7.9871603 0.82518321,7.9822544 0.71239471,7.945687 0.39699539,7.843431 0.15209198,7.5960056 0.05228325,7.278778 L 0.00962696,7.143201 V 4.9867629 2.8303249 L 0.0596551,2.6935828 C 0.15426963,2.4349726 0.30928897,2.2516037 0.53501062,2.1312953 0.77784333,2.0018668 0.14146507,2.0120337 8,2.0120337 c 7.842775,0 7.223318,-0.00966 7.459322,0.1163358 0.229302,0.1224188 0.386678,0.3073387 0.481023,0.5652133 l 0.05003,0.1367421 v 3.6582431 3.658243 l -0.04312,0.137089 c -0.07848,0.249534 -0.270768,0.479752 -0.495807,0.593612 -0.221398,0.112017 -0.04207,0.106367 -3.384062,0.106616 l -3.0758126,2.28e-4 v 1.010831 1.01083 h 1.5018046 1.501806 v 0.490975 0.490974 H 8.5006017 5.0060168 V 13.496992 13.006017 H 6.5078219 8.009627 v -1.01083 -1.010831 H 5.4969916 2.9843562 v 1.501805 1.501805 H 2.4933815 2.0024067 Z M 15.018051,6.4981949 V 2.9939832 H 10.002407 4.9867629 v 2.0657501 c 0,2.2592418 0.00452,2.1636263 -0.1132857,2.3964766 C 4.7605869,7.679345 4.5630885,7.8471523 4.3052138,7.9390435 4.1726645,7.9862762 4.1503182,7.9880252 3.576414,7.9960857 l -0.5920578,0.00832 V 9.0034041 10.002407 H 9.0012034 15.018051 Z M 4.0048135,6.0072202 V 4.9963899 H 3.4945848 2.9843562 V 5.4969916 5.9975933 H 2.4933815 2.0024067 V 5.4969916 4.9963899 H 1.4921781 0.98194946 v 0.9979943 c 0,0.5488971 0.005776,1.0037707 0.0128359,1.0108303 0.00706,0.00706 0.68720414,0.012836 1.51143214,0.012836 h 1.498596 z m 0,-2.5030084 V 2.9939832 H 2.4933815 0.98194946 v 0.5102286 0.5102286 h 1.51143204 1.511432 z"
     id="path121" />
</svg>
