<?xml version="1.0" encoding="UTF-8" standalone="no"?>
<svg
   width="16"
   height="16"
   version="1.1"
   id="svg16"
   sodipodi:docname="audio-volume-low-symbolic.svg"
   inkscape:version="1.1.2 (0a00cf5339, 2022-02-04, custom)"
   xmlns:inkscape="http://www.inkscape.org/namespaces/inkscape"
   xmlns:sodipodi="http://sodipodi.sourceforge.net/DTD/sodipodi-0.dtd"
   xmlns="http://www.w3.org/2000/svg"
   xmlns:svg="http://www.w3.org/2000/svg">
  <defs
     id="defs20" />
  <sodipodi:namedview
     id="namedview18"
     pagecolor="#ffffff"
     bordercolor="#666666"
     borderopacity="1.0"
     inkscape:pageshadow="2"
     inkscape:pageopacity="0.0"
     inkscape:pagecheckerboard="0"
     showgrid="false"
     inkscape:zoom="51.9375"
     inkscape:cx="7.990373"
     inkscape:cy="7.9807461"
     inkscape:window-width="2556"
     inkscape:window-height="1053"
     inkscape:window-x="1920"
     inkscape:window-y="23"
     inkscape:window-maximized="1"
     inkscape:current-layer="svg16" />
  <g
     transform="translate(0 -.00047914)"
     fill="#363636"
     id="g14">
    <rect
       y="6"
       width="5"
       height="4"
       ry="1"
       fill-rule="evenodd"
       id="rect2" />
    <path
       d="m6 3-3 3v4l3 3z"
       id="path4" />
    <g
       fill-rule="evenodd"
       id="g12">
      <path
         d="M 13.139,1.428 C 12.594,1 12,1.652 12.455,2.16 A 8,8 0 0 1 15,8 8,8 0 0 1 12.446,13.852 C 12,14.323 12.626,15 13.123,14.58 A 9,9 0 0 0 16,8 9,9 0 0 0 13.139,1.428 Z"
         opacity=".35"
         id="path6" />
      <path
         d="m10.775 2.889c-0.587-0.535-1.199 0.225-0.684 0.732a6 6 0 0 1 1.909 4.379 6 6 0 0 1-1.916 4.389c-0.469 0.446 0.173 1.146 0.68 0.728a7 7 0 0 0 2.236-5.117 7 7 0 0 0-2.225-5.111z"
         opacity=".35"
         id="path8" />
      <path
         d="M 8.41,4.35 C 7.89,3.856 7.255,4.57 7.727,5.08 A 4,4 0 0 1 9,8 4,4 0 0 1 7.723,10.926 c -0.473,0.43 0.14,1.152 0.68,0.73 A 5,5 0 0 0 10,8 5,5 0 0 0 8.41,4.35 Z"
         id="path10" />
    </g>
  </g>
  <path
     style="fill:#ffffff;stroke-width:0.0192539"
     d="M 4.4861613,11.475331 2.9940763,9.9831528 1.9254377,9.9829243 C 0.76958148,9.9826771 0.75683123,9.9816899 0.54854937,9.8763088 0.32350964,9.7624491 0.13122308,9.532231 0.05274239,9.2826963 0.01011018,9.1471442 0.00962696,9.1327682 0.00962696,8 c 0,-1.1291127 6.1418e-4,-1.1475599 0.04265629,-1.2811847 C 0.15582839,6.3897121 0.42267935,6.1295209 0.74194873,6.0463617 0.83717089,6.0215594 1.0259888,6.0168472 1.9245768,6.0168472 H 2.9938911 L 4.4909287,4.5199019 5.9879663,3.0229566 v 4.9722761 c 0,2.7347523 -0.00219,4.9722763 -0.00486,4.9722763 -0.00267,0 -0.6762982,-0.67148 -1.496945,-1.492178 z"
     id="path96" />
  <path
     style="fill:#ffffff;stroke-width:0.0192539"
     d="M 7.9061852,11.746672 C 7.7283236,11.680473 7.5855236,11.498843 7.570688,11.319945 7.5572903,11.158387 7.6012706,11.068772 7.7850206,10.883217 8.1005845,10.564553 8.2960519,10.312077 8.4834883,9.9810366 9.273272,8.5861639 9.1615996,6.8676785 8.1982674,5.5918804 8.1068861,5.4708588 7.9531955,5.2909802 7.8567325,5.1921501 7.5981638,4.9272364 7.5309713,4.763622 7.5930496,4.5500802 7.679699,4.2520164 7.9935707,4.1120029 8.2555083,4.2545672 c 0.11249,0.061225 0.4472271,0.3942053 0.6392808,0.6359262 1.3533009,1.7032793 1.4558829,4.0595633 0.2552395,5.8628156 -0.2769432,0.415943 -0.6859489,0.868368 -0.8698417,0.962183 -0.1065039,0.05433 -0.2742223,0.06832 -0.3740017,0.03118 z"
     id="path135" />
</svg>
