<?xml version="1.0" encoding="UTF-8" standalone="no"?>
<svg
   width="16"
   height="16"
   viewBox="0 0 24 24"
   fill="none"
   stroke="#ECEFF4"
   stroke-width="2"
   stroke-linecap="round"
   stroke-linejoin="round"
   class="feather feather-log-out"
   version="1.1"
   id="svg8"
   sodipodi:docname="log-out.svg"
   inkscape:version="1.1.2 (0a00cf5339, 2022-02-04, custom)"
   xmlns:inkscape="http://www.inkscape.org/namespaces/inkscape"
   xmlns:sodipodi="http://sodipodi.sourceforge.net/DTD/sodipodi-0.dtd"
   xmlns="http://www.w3.org/2000/svg"
   xmlns:svg="http://www.w3.org/2000/svg">
  <defs
     id="defs12" />
  <sodipodi:namedview
     id="namedview10"
     pagecolor="#ffffff"
     bordercolor="#666666"
     borderopacity="1.0"
     inkscape:pageshadow="2"
     inkscape:pageopacity="0.0"
     inkscape:pagecheckerboard="0"
     showgrid="false"
     inkscape:zoom="51.9375"
     inkscape:cx="7.990373"
     inkscape:cy="7.9807461"
     inkscape:window-width="2556"
     inkscape:window-height="1053"
     inkscape:window-x="0"
     inkscape:window-y="23"
     inkscape:window-maximized="1"
     inkscape:current-layer="svg8" />
  <path
     d="M9 21H5a2 2 0 0 1-2-2V5a2 2 0 0 1 2-2h4"
     id="path2" />
  <polyline
     points="16 17 21 12 16 7"
     id="polyline4" />
  <line
     x1="21"
     y1="12"
     x2="9"
     y2="12"
     id="line6" />
  <path
     style="fill:#ffffff;stroke-width:0.0385078"
     d="m 3.0661792,14.641553 c -0.1998001,-0.02636 -0.4082375,-0.0916 -0.6113056,-0.191359 -0.577866,-0.283869 -0.9724638,-0.811285 -1.08674,-1.452527 -0.028495,-0.159895 -0.028495,-9.8354391 0,-9.9953342 C 1.4579623,2.4982739 1.7324244,2.0470135 2.1353878,1.7408422 2.3086197,1.6092208 2.6091305,1.4643943 2.840404,1.4010708 L 3.032491,1.3484767 4.5920578,1.3481252 6.1516245,1.3477738 6.269409,1.4022059 C 6.6731833,1.5888036 6.7826006,2.1074204 6.4887938,2.4420477 6.4539959,2.4816805 6.3868355,2.5367808 6.3395485,2.5644928 6.1684448,2.6647662 6.1468769,2.6660417 4.6168474,2.6663659 3.2327404,2.6666592 3.1949765,2.6676459 3.0919063,2.7062094 2.9444017,2.761398 2.8070085,2.8910109 2.7298305,3.0477815 L 2.6666667,3.1760856 V 8 12.823914 l 0.063164,0.128305 c 0.077178,0.15677 0.2145712,0.286383 0.3620758,0.341572 0.1030702,0.03856 0.1408341,0.03955 1.5249411,0.03984 1.1123121,2.35e-4 1.4427698,0.0058 1.5279892,0.02589 0.2115935,0.0498 0.3629911,0.174885 0.4566331,0.377259 0.072711,0.157139 0.071436,0.370537 -0.00317,0.530361 -0.070054,0.150077 -0.1822633,0.262884 -0.3288918,0.330646 l -0.1177845,0.05443 -1.4825511,0.0026 c -0.8154031,0.0014 -1.5367055,-0.0045 -1.6028942,-0.01327 z"
     id="path88"
     transform="scale(1.5)" />
  <path
     style="fill:#ffffff;stroke-width:0.0385078"
     d="m 10.422181,11.945076 c -0.135327,-0.05203 -0.280347,-0.186519 -0.346602,-0.32144 -0.0476,-0.09693 -0.05391,-0.131239 -0.05383,-0.292709 7.7e-5,-0.163173 0.006,-0.194341 0.05479,-0.288809 0.04349,-0.08419 0.288039,-0.33966 1.193213,-1.2464727 L 12.408271,8.6550691 9.1162896,8.6500376 5.8243081,8.645006 5.733483,8.6030465 C 5.404599,8.4511082 5.2539744,8.059515 5.3998085,7.7355608 5.4625333,7.5962245 5.5965728,7.4602035 5.733483,7.3969535 l 0.090825,-0.04196 3.2919815,-0.00503 3.2919815,-0.00503 -1.138514,-1.1405762 c -0.905174,-0.906813 -1.149725,-1.1622798 -1.193213,-1.2464726 -0.0488,-0.094468 -0.05471,-0.1256363 -0.05479,-0.2888087 -7.7e-5,-0.1614701 0.0062,-0.1957833 0.05383,-0.2927098 0.147681,-0.3007366 0.510348,-0.4401115 0.835853,-0.3212234 0.106326,0.038835 0.192329,0.1214849 1.876929,1.8037606 C 14.77598,7.8437776 14.657293,7.7078071 14.657293,8 c 0,0.2921929 0.118687,0.1562224 -1.868932,2.141099 -1.6846,1.682276 -1.770603,1.764926 -1.876929,1.803761 -0.146075,0.05335 -0.350803,0.05344 -0.489251,2.16e-4 z"
     id="path127"
     transform="scale(1.5)" />
</svg>
