<?xml version="1.0" encoding="UTF-8" standalone="no"?>
<svg
   height="16"
   width="16"
   version="1.1"
   id="svg6"
   sodipodi:docname="log-out.svg"
   inkscape:version="1.1.2 (0a00cf5339, 2022-02-04, custom)"
   xmlns:inkscape="http://www.inkscape.org/namespaces/inkscape"
   xmlns:sodipodi="http://sodipodi.sourceforge.net/DTD/sodipodi-0.dtd"
   xmlns="http://www.w3.org/2000/svg"
   xmlns:svg="http://www.w3.org/2000/svg">
  <defs
     id="defs10" />
  <sodipodi:namedview
     id="namedview8"
     pagecolor="#ffffff"
     bordercolor="#666666"
     borderopacity="1.0"
     inkscape:pageshadow="2"
     inkscape:pageopacity="0.0"
     inkscape:pagecheckerboard="0"
     showgrid="false"
     inkscape:zoom="51.9375"
     inkscape:cx="7.990373"
     inkscape:cy="7.9807461"
     inkscape:window-width="2556"
     inkscape:window-height="1053"
     inkscape:window-x="0"
     inkscape:window-y="23"
     inkscape:window-maximized="1"
     inkscape:current-layer="svg6" />
  <g
     transform="translate(-833 191.003)"
     id="g4">
    <path
       color="#000"
       d="M841.488-189.982A7.006 7.006 0 0 0 834-183a7.006 7.006 0 0 0 5.192 6.762c3.059.819 6.293-.52 7.877-3.262a.5.5 0 1 0-.868-.5 5.999 5.999 0 0 1-6.752 2.795A5.996 5.996 0 0 1 835-183a5.996 5.996 0 0 1 10.71-3.709L844-185h4v-4l-1.58 1.58a7.012 7.012 0 0 0-4.932-2.562z"
       fill="#363636"
       font-family="sans-serif"
       font-weight="400"
       overflow="visible"
       style="line-height:normal;font-variant-ligatures:normal;font-variant-position:normal;font-variant-caps:normal;font-variant-numeric:normal;font-variant-alternates:normal;font-feature-settings:normal;text-indent:0;text-align:start;text-decoration-line:none;text-decoration-style:solid;text-decoration-color:#000;text-transform:none;text-orientation:mixed;shape-padding:0;isolation:auto;mix-blend-mode:normal"
       white-space="normal"
       id="path2" />
  </g>
  <path
     style="fill:#ffffff;stroke-width:0.0192539"
     d="M 7.3935018,14.96911 C 5.3254731,14.774773 3.4994083,13.719173 2.2820167,12.014295 2.1134898,11.778284 1.8947381,11.407653 1.736634,11.090253 0.28027423,8.1665558 1.0764671,4.5952362 3.6407026,2.549561 4.4716415,1.8866613 5.437941,1.4220191 6.4778413,1.1853315 8.330143,0.76373641 10.314241,1.1396219 11.898636,2.2122959 c 0.543604,0.3680332 1.091942,0.8644833 1.48011,1.3400507 l 0.03929,0.048135 0.790381,-0.7893223 0.790381,-0.7893222 V 4.0097149 5.9975933 H 13.010911 11.023026 L 11.87447,5.1456077 12.725913,4.2936221 12.608333,4.1492178 C 12.431856,3.9324815 11.953577,3.4674087 11.721699,3.2870656 10.833302,2.596115 9.8703509,2.194044 8.7316486,2.0385984 8.4240452,1.9966071 7.6163531,1.9905871 7.3357401,2.0281944 6.5114287,2.138667 5.928531,2.3156925 5.2512052,2.6612659 4.8586066,2.8615708 4.4244775,3.1492136 4.1073182,3.4191761 3.9286822,3.5712293 3.5382722,3.9679199 3.3823209,4.1558365 2.4102404,5.3271657 1.9200838,6.8028788 2.0021258,8.3111854 c 0.082467,1.5161211 0.6917318,2.8831636 1.7620151,3.9535356 0.9868806,0.986962 2.2996918,1.594855 3.7236573,1.724229 0.3616786,0.03286 1.0304418,0.01391 1.3786278,-0.03906 0.6399482,-0.09736 1.186717,-0.265058 1.752106,-0.537376 0.982962,-0.473441 1.794352,-1.182813 2.391663,-2.090955 0.0976,-0.148397 0.19916,-0.302068 0.225678,-0.341491 0.239533,-0.356103 0.775348,-0.247175 0.877436,0.178377 0.04044,0.168553 -0.01152,0.295338 -0.295534,0.72122 -0.801434,1.20175 -1.966524,2.132096 -3.314767,2.646902 C 9.9752233,14.728094 9.4638188,14.85712 8.856799,14.9419 8.5959757,14.97833 7.6740234,14.99547 7.3935018,14.96911 Z"
     id="path86" />
</svg>
